…
To actually appreciate the power of `summarise()`, we need to introduce the other major basic verb in `"dplyr"`: `group_by()`. This is the function that allows you to perform data aggregations, or *grouped operations*.

Let's see the combination of `summarise()` and `group_by()` to calculate the average salary by team:

``` r
# average salary, grouped by team
summarise(
  group_by(dat, team),
  avg_salary = mean(salary)
)
```

    ## # A tibble: 30 x 2
    ##    team  avg_salary
    ##    <chr>      <dbl>
    ##  1 ATL     5494447.
    ##  2 BOS     6127673.
    ##  3 BRK     4011351.
    ##  4 CHI     5781368.
    ##  5 CHO     5531548.
    ##  6 CLE     7069699.
    ##  7 DAL     5157128.
    ##  8 DEN     4648719.
    ##  9 DET     6871632.
    ## 10 GSW     6265160.
    ## # … with 20 more rows
…
